{
  "project_info": {
    "project_number": "737911876644",
    "firebase_url": "https://socialminedreamhatx.firebaseio.com",
    "project_id": "socialminedreamhatx",
    "storage_bucket": "socialminedreamhatx.appspot.com"
  },
  "client": [
    {
      "client_info": {
        "mobilesdk_app_id": "1:737911876644:android:e28a502d0e096632",
        "android_client_info": {
          "package_name": "com.atreya"
        }
      },
      "oauth_client": [
        {
          "client_id": "737911876644-8ej3rrmj3gjfthl27bcn7jg1ui1cb5uj.apps.googleusercontent.com",
          "client_type": 3
        }
      ],
      "api_key": [
        {
          "current_key": "AIzaSyBMwvn6Klnuc7umV-ibgh7M9saL1YvMV5o"
        }
      ],
      "services": {
        "analytics_service": {
          "status": 1
        },
        "appinvite_service": {
          "status": 1,
          "other_platform_oauth_client": []
        },
        "ads_service": {
          "status": 2
        }
      }
    },
    {
      "client_info": {
        "mobilesdk_app_id": "1:737911876644:android:c8ee0e9fe8f14549",
        "android_client_info": {
          "package_name": "org.istenitc.atreya"
        }
      },
      "oauth_client": [
        {
          "client_id": "737911876644-8ej3rrmj3gjfthl27bcn7jg1ui1cb5uj.apps.googleusercontent.com",
          "client_type": 3
        }
      ],
      "api_key": [
        {
          "current_key": "AIzaSyBMwvn6Klnuc7umV-ibgh7M9saL1YvMV5o"
        }
      ],
      "services": {
        "analytics_service": {
          "status": 1
        },
        "appinvite_service": {
          "status": 1,
          "other_platform_oauth_client": []
        },
        "ads_service": {
          "status": 2
        }
      }
    }
  ],
  "configuration_version": "1"
}
